<?xml version="1.0" encoding="utf-8"?>
<!-- Generator: Adobe Illustrator 22.0.1, SVG Export Plug-In . SVG Version: 6.00 Build 0)  -->
<svg version="1.1" id="outerPath" xmlns="http://www.w3.org/2000/svg" xmlns:xlink="http://www.w3.org/1999/xlink" x="0px" y="0px"
	 width="166.6px" height="203.8px" viewBox="0 0 166.6 203.8" style="enable-background:new 0 0 166.6 203.8;" xml:space="preserve"
	>
<style type="text/css">
	.st0{fill:none;stroke:#00D382;stroke-miterlimit:10;}
</style>
<path class="st0" d="M140.8,24.6c0,0,33,20.5,23.5,80c0,0-9,26.5-23.5,39.5l-57,59l-62.5-62c0,0-24-17.5-20.5-74.5
	c0,0,10.5-48.5,61.5-64C62.3,2.6,103.3-9.4,140.8,24.6z"/>
</svg>
